[{
    "operation": "shift",
    "spec": {
      "MessageResponse": {
        "Header": {
          "HeaderResponse": {
            "@response": "MessageResponse.Header.HeaderResponse.response",
            "status": {
              "responseType": "MessageResponse.Header.HeaderResponse.status.responseType",
              "busResponseCode": "MessageResponse.Header.HeaderResponse.status.busResponseCode",
              "busResponseMessage": "MessageResponse.Header.HeaderResponse.status.busResponseMessage",
              "srvResponseCode": "MessageResponse.Header.HeaderResponse.status.srvResponseCode",
              "srvResponseMessage": "MessageResponse.Header.HeaderResponse.status.srvResponseMessage",
              "messageIdRes": "MessageResponse.Header.HeaderResponse.status.messageIdResBus"
            }
          }
        },
        "Body": {
          "envioMensajeResponse": "MessageResponse.Body.enviarSMSResponse"
        }
      }
    }
}
]
