[
  {
    "operation": "shift",
    "spec": {
      "MessageRequest": {
        "Header": {
          "HeaderRequest": {
            "@request": "MessageRequest.Header.HeaderRequest.request",
            "@identity": "MessageRequest.Header.HeaderRequest.identity"
          }
        },
        "Body": {
          "@envioCorreo": "MessageRequest.Body.envioCorreo",
          "@envioCorreo.messages": {
            "*": {
              "@(0,message)": "messages.message[&]",
              "@message.attachments": {
                "*": {
                  "@(0,attachment)": "messages.message[&2].attachments2.attachment[&]"
                }
              },
              "@message.parameters": {
                "*": {
                  "@(0,parameter)": "messages.message[&2].parameters2.parameter[&]"
                }
              }
            }
          }
        }
      }
    }
    },
  {
    "operation": "remove",
    "spec": {
      "MessageRequest": {
        "Body": {
          "envioCorreo": {
            "messages": ""
          }
        }
      },
      "messages": {
        "message": {
          "*": {
            "attachments": "",
            "parameters": ""
          }
        }
      }
    }
  },
  {
    "operation": "shift",
    "spec": {
      "@MessageRequest.Header.HeaderRequest.request": "MessageRequest.Header.HeaderRequest.request",
      "@MessageRequest.Header.HeaderRequest.identity": "MessageRequest.Header.HeaderRequest.identity",
      "@MessageRequest.Body.envioCorreo": "MessageRequest.Body.envioCorreo",
      "@messages.message": {
        "*": {
          "@id": "MessageRequest.Body.envioCorreo.messages.message[&].id",
          "@from": "MessageRequest.Body.envioCorreo.messages.message[&].from",
          "@destination": "MessageRequest.Body.envioCorreo.messages.message[&].destination",
          "@cc": "MessageRequest.Body.envioCorreo.messages.message[&].cc",
          "@cco": "MessageRequest.Body.envioCorreo.messages.message[&].cco",
          "@emailRespuesta": "MessageRequest.Body.envioCorreo.messages.message[&].emailRespuesta",
          "@type": "MessageRequest.Body.envioCorreo.messages.message[&].type",
          "@templateName": "MessageRequest.Body.envioCorreo.messages.message[&].templateName",
          "@tags": "MessageRequest.Body.envioCorreo.messages.message[&].tags",
          "@carrier": "MessageRequest.Body.envioCorreo.messages.message[&].carrier",
          "@attachments2": "MessageRequest.Body.envioCorreo.messages.message[&].attachments",
          "@appSource": "MessageRequest.Body.envioCorreo.messages.message[&].appSource",
          "@parameters2": "MessageRequest.Body.envioCorreo.messages.message[&].parameters"
        }
      }
    }
  }
]