[
  {
    "operation": "shift",
    "spec": {
      "@MessageRequest.Header.HeaderRequest.request": "MessageRequest.Header.HeaderRequest.request",
      "@MessageRequest.Header.HeaderRequest.identity": "MessageRequest.Header.HeaderRequest.identity",
      "@MessageRequest.Body": {
        "envioCorreo": {
          "@identity": "MessageRequest.Body.envioCorreo.identity",
          "@credential": "MessageRequest.Body.envioCorreo.credential",
          "@messages": {
            "@message": {
              "*": {
                "@id": "MessageRequest.Body.envioCorreo.messages.message[&].id",
                "@from": "MessageRequest.Body.envioCorreo.messages.message[&].from",
                "@destination": "MessageRequest.Body.envioCorreo.messages.message[&].destination",
                "@cc": "MessageRequest.Body.envioCorreo.messages.message[&].cc",
                "@cco": "MessageRequest.Body.envioCorreo.messages.message[&].cco",
                "@emailRespuesta": "MessageRequest.Body.envioCorreo.messages.message[&].emailRespuesta",
                "@type": "MessageRequest.Body.envioCorreo.messages.message[&].type",
                "@templateName": "MessageRequest.Body.envioCorreo.messages.message[&].templateName",
                "@tags": "MessageRequest.Body.envioCorreo.messages.message[&].tags",
                "@carrier": "MessageRequest.Body.envioCorreo.messages.message[&].carrier",
                "@attachments": "MessageRequest.Body.envioCorreo.messages.message[&].attachments",
                "@appSource": "MessageRequest.Body.envioCorreo.messages.message[&].appSource",
                "@parameters": "MessageRequest.Body.envioCorreo.messages.message[&].parameters"
              }
            }
          }
        }
      }
    }
  }
]